<?xml version="1.0" encoding="UTF-8"?>
<svg width="100px" height="100px" viewBox="0 0 100 100" version="1.1" xmlns="http://www.w3.org/2000/svg" xmlns:xlink="http://www.w3.org/1999/xlink">
    <!-- Generator: Sketch 52.6 (67491) - http://www.bohemiancoding.com/sketch -->
    <title>Icon/Categoria/96px/Feminino</title>
    <desc>Created with Sketch.</desc>
    <g id="Icon/Categoria/96px/Feminino" stroke="none" stroke-width="1" fill="none" fill-rule="evenodd">
        <circle id="Oval-3" stroke="#00A1AD" fill="#FFFFFF" cx="50" cy="50" r="47.5"></circle>
        <path d="M75.4653221,81.3091689 L74.8382827,81.4933652 C74.80584,81.5040351 71.3411814,82.5210456 68.1097747,83.2583922 C61.9546079,84.6645735 56.0399646,85.3766493 50.5314147,85.3766493 C45.0239835,85.3766493 39.1093403,84.6645735 32.9536141,83.2583922 C29.7205294,82.5199224 26.2569895,81.5040351 26.2245467,81.4933652 L25.5863201,81.3063611 L25.5863201,80.6386496 C25.5863201,77.1832848 27.2750196,71.2165612 29.9929363,65.0667645 C31.3264439,62.0466196 32.959767,58.7659044 34.9851995,55.0370531 C36.0004329,53.1686964 37.0743987,51.2554138 38.4671982,48.8322221 L39.4343268,47.1559237 C40.2000869,45.8311707 41.171131,44.148695 41.5089828,43.5567961 C43.5109223,40.0503281 44.5272743,38.0982969 44.5272743,37.1570989 C44.5272743,36.027212 44.2878694,35.5268496 41.6846209,31.2038531 C41.413892,30.7540323 41.1974208,30.3895708 40.9949335,30.0413949 C39.5819971,27.6024791 38.9527203,26.0025548 38.9527203,24.8535744 C38.9527203,23.5585848 39.4527856,22.470816 40.438373,20.7962024 C40.6503694,20.4351103 40.8232108,20.1408455 40.9680843,19.8870141 L41.7377599,18.5397981 L42.5091135,19.8864525 C42.7183131,20.2537219 42.943734,20.6097598 43.1775453,20.945581 C45.0480359,23.6197964 47.5220729,24.9765591 50.5314147,24.9765591 C53.5418753,24.9765591 56.0159123,23.6197964 57.8864028,20.9444579 C58.1224515,20.6063903 58.3467538,20.250914 58.553716,19.8875756 L59.3239509,18.5369902 L60.0947451,19.8875756 C60.2396186,20.1408455 60.41246,20.4339871 60.6250157,20.7962024 C61.6106032,22.470816 62.1106685,23.5574616 62.1106685,24.8535744 C62.1106685,26.0025548 61.4813916,27.6019175 60.0701334,30.038587 C59.8665274,30.3884476 59.6494968,30.7534707 59.3782085,31.2038531 C56.77496,35.5274112 56.5361145,36.0283352 56.5361145,37.1570989 C56.5361145,38.09942 57.5524665,40.0520128 59.5538467,43.5562345 C59.8469499,44.0700747 60.6188628,45.4066208 61.3180593,46.6162511 L62.5961906,48.8322221 C63.9805997,51.2385666 65.0545656,53.1518492 66.0781893,55.0370531 C68.0974688,58.7535497 69.7302326,62.0337034 71.0704525,65.0667645 C73.8454236,71.347408 75.5335637,77.3197473 75.4770686,80.6538121 L75.4653221,81.3091689 Z M66.7466212,54.6714684 C65.7498466,52.8345599 64.6730839,50.9162232 63.2551134,48.4492286 L62.4244679,47.0099145 C61.6408085,45.6537133 60.5707581,43.8005192 60.2150069,43.177172 C57.2973996,38.0679719 57.2973996,37.4979743 57.2973996,37.1570989 C57.2973996,36.2361176 57.8500446,35.2179839 60.0293003,31.5997627 C60.3022666,31.1482572 60.5204159,30.7809878 60.7251407,30.4249499 C62.2499485,27.7984684 62.8719537,26.1845048 62.8719537,24.8535744 C62.8719537,23.5209593 62.4999811,22.4820475 61.280023,20.4070316 C60.467277,19.0261211 60.2547213,18.6386351 60.0276222,18.0001255 C59.8704429,17.5581667 59.7938109,17.1594492 59.7938109,16.7820715 L59.7938109,11.7593538 C59.7938109,11.5493251 59.623207,11.378045 59.413448,11.378045 C59.2042484,11.378045 59.0330851,11.5493251 59.0330851,11.7593538 L58.9967269,16.9348196 C58.9385537,17.1341784 58.8305978,17.4677533 58.6482473,17.9226283 C58.2757154,18.8554027 57.8092115,19.7241576 57.2632789,20.505307 C55.5421367,22.9644395 53.2772993,24.2128185 50.5314147,24.2128185 C47.7866488,24.2128185 45.5212521,22.9644395 43.8006693,20.5058686 C43.255296,19.7252808 42.7893514,18.8565258 42.4151415,17.9220667 C42.2702679,17.5609746 42.1460906,17.2088677 42.0661026,16.9292039 L42.0336598,16.7163673 L42.0314224,11.7593538 C42.0314224,11.5493251 41.8602591,11.378045 41.6499408,11.378045 C41.4401818,11.378045 41.2690185,11.5493251 41.2690185,11.7593538 L41.2690185,16.7820715 C41.2690185,17.1600108 41.1929459,17.5587283 41.0357666,18.0012486 C40.8092269,18.6369504 40.5966711,19.024998 39.7844845,20.4070316 C38.563967,22.4820475 38.1914351,23.5209593 38.1914351,24.8535744 C38.1914351,26.1822585 38.812881,27.7962221 40.33657,30.4227036 C40.5435322,30.7798647 40.7616815,31.1471341 41.0346478,31.6008859 C43.2133442,35.2174223 43.7665485,36.2361176 43.7665485,37.1570989 C43.7665485,37.4979743 43.7665485,38.0685335 40.8483819,43.177172 C40.5519226,43.6971896 39.757076,45.0747305 39.0466923,46.3045776 L37.807716,48.4503518 C36.4110011,50.8797209 35.3342384,52.7986192 34.3167676,54.6714684 C32.2812667,58.4216595 30.6395533,61.7203451 29.2976553,64.7562141 C26.254752,71.643919 24.7752522,77.1209501 24.7752522,81.5023504 C24.7752522,81.6871082 24.9055824,81.8421026 25.0812206,81.8769202 L25.0823393,81.8735508 L25.1007981,81.8802897 C25.1125446,81.8819744 25.1242911,81.8830975 25.1365969,81.8836591 L25.3676115,81.8948906 L25.3782393,81.9780035 C25.4017323,81.985304 25.4291408,81.9937276 25.4615835,82.0027128 L25.55164,82.0307915 C26.098132,82.2060026 26.6004348,82.3621202 27.1765727,82.5345234 C28.9799404,83.0708265 30.8666523,83.5650116 32.7846882,84.0030393 C38.9957908,85.4221368 44.9669291,86.1415131 50.5314147,86.1415131 C56.0970191,86.1415131 62.0687167,85.4221368 68.2792599,84.0030393 C70.1961771,83.5655732 72.0823297,83.0708265 73.8873754,82.5345234 C74.4623946,82.3626817 74.9646974,82.2060026 75.4507789,82.0487619 L75.6124331,82.0004665 C75.6555036,81.9869887 75.689065,81.9768804 75.7153548,81.9684568 L75.7254232,81.8937674 L75.9267918,81.8836591 C75.9368603,81.8830975 75.9469287,81.882536 75.9564378,81.8814128 L75.9922366,81.867935 L75.9939147,81.8741124 C76.1639593,81.8353638 76.288696,81.6831772 76.288696,81.5023504 C76.288696,77.1231964 74.8091961,71.6456038 71.7657335,64.7562141 C70.4215981,61.7124831 68.7793253,58.4137975 66.7466212,54.6714684 Z" id="Fill-7" stroke="#00A1AD" stroke-width="0.4" fill="#04A1AD"></path>
        <path d="M43.0158948,34.9494135 C41.7629346,34.9494135 40.7437857,35.9731629 40.7437857,37.2310887 C40.7437857,38.4890144 41.7629346,39.5127638 43.0158948,39.5127638 L57.4903815,39.5127638 C58.7433417,39.5127638 59.7630499,38.4890144 59.7630499,37.2310887 C59.7630499,35.9731629 58.7433417,34.9494135 57.4903815,34.9494135 L43.0158948,34.9494135 Z M57.4903815,40.2905437 L43.0158948,40.2905437 C41.336145,40.2905437 39.9685166,38.9180569 39.9685166,37.2310887 C39.9685166,35.544682 41.336145,34.1716336 43.0158948,34.1716336 L57.4903815,34.1716336 C59.1706906,34.1716336 60.5377597,35.544682 60.5377597,37.2310887 C60.5377597,38.9180569 59.1706906,40.2905437 57.4903815,40.2905437 Z" id="Fill-10" stroke="#00A1AD" stroke-width="0.4" fill="#04A1AD"></path>
    </g>
</svg>